{
  "project_info": {
    "project_number": "646585485023",
    "project_id": "comlove-81938",
    "storage_bucket": "comlove-81938.appspot.com"
  },
  "client": [
    {
      "client_info": {
        "mobilesdk_app_id": "1:646585485023:android:fe7ad420e234ecbf360b6a",
        "android_client_info": {
          "package_name": "com.orem.cam.love"
        }
      },
      "oauth_client": [
        {
          "client_id": "646585485023-b474hb33i77kr0t8b3hurucqellt40sb.apps.googleusercontent.com",
          "client_type": 3
        }
      ],
      "api_key": [
        {
          "current_key": "AIzaSyCxUN7Lz3DW7mYGAWP9o8pLA8I80Rxf0-4"
        }
      ],
      "services": {
        "appinvite_service": {
          "other_platform_oauth_client": [
            {
              "client_id": "646585485023-b474hb33i77kr0t8b3hurucqellt40sb.apps.googleusercontent.com",
              "client_type": 3
            }
          ]
        }
      }
    }
  ],
  "configuration_version": "1"
}